{
  "name": "Umzug des Wegkreuz und Pflanzen zweier Linden",
  "markdownUrl": "info.md",
  "images": [
    {
      "title": "Umzug Wegkreuz 1",
      "image": "Wegkreuz01.JPG"
    },
    {
      "title": "Umzug Wegkreuz 2",
      "image": "Wegkreuz02.JPG"
    },
    {
      "title": "Umzug Wegkreuz 3",
      "image": "Wegkreuz03.JPG"
    },
    {
      "title": "Umzug Wegkreuz 4",
      "image": "Wegkreuz04.JPG"
    },
    {
      "title": "Umzug Wegkreuz 5",
      "image": "Wegkreuz05.JPG"
    },
    {
      "title": "Umzug Wegkreuz 6",
      "image": "Wegkreuz06.JPG"
    },
    {
      "title": "Umzug Wegkreuz 7",
      "image": "Wegkreuz07.JPG"
    },
     {
      "title": "Umzug Wegkreuz 8",
      "image": "Wegkreuz08.JPG"
    },
     {
      "title": "Pflanzen zweier Winterlinden",
      "image": "Wegkreuz10.JPG"
    },
    {
      "title": "Pflanzen zweier Winterlinden",
      "image": "Wegkreuz12.JPG"
    },
    {
      "title": "Pflanzen zweier Winterlinden",
      "image": "Wegkreuz13.JPG"
    },
    {
      "title": "Pflanzen zweier Winterlinden",
      "image": "Wegkreuz14.JPG"
    },
    {
      "title": "Pflanzen zweier Winterlinden",
      "image": "Wegkreuz15.JPG"
    }
  ]

}