[
  {
    "id": "Mustergarten",
    "gps" : {"lt":48.30925, "long":10.13431},
    "k" : "UL",
    "n" : "Mustergarten des Lkr. Neu Ulm",
    "s" : "Ulmer Straße",
    "o" : "89264 Weißenhorn",
    "t" : "9.000 m2 große Gartenoase mit beschildertem Pflanzensortiment, attraktive Rosen u. Stauden-kombinationen, viele Gemüsesorten in Mischkultur, robuste Obstsorten u. Teich ",
    "url" : "http://www.landkreis.neu-ulm.de/de/kreismustergarten/kreismustergarten-20001148.html"
  },
  {
    "id": "Gaissmayer",
    "gps" : {"lt":48.24036, "long":10.13227},
    "k" : "UL",
    "n" : "Schaugarten Stauden\u00ADgärtnerei Gaissmayer",
    "s" : "Jungviehweide 3",
    "o" : "Illertissen",
    "t" : "Die Staudengärtnerei Gaissmayer besitzt einen großen Schaugarten, der während der Öffnungszeiten besichtigt werden kann.",
    "url" : "https://www.gaissmayer.de/bilder_mutterpflanzen/"
  },
  {
    "id": "Museumsgaerten",
    "gps" : {"lt": 48.24195, "long":10.13307},
    "k" : "UL",
    "n" : "Gärten des Museum der Gartenkultur",
    "s" : "Jungviehweide 1",
    "o" : "Illertissen",
    "t" : "Über 20 „improvisierte Gärten“ und „Gartenkabinette“ mit einer Grundfläche von jeweils 10 x 10 m widmen sich jeweils einem gärtnerischen Schwerpunkt.",
    "url" : "https://www.foerderer-der-gartenkultur.de/museumsg%C3%A4rten.html"
  },
  {
    "id": "Botanische_Garten_Augsburg",
    "gps" : {"lt":48.34961, "long":10.91462},
    "n" : "Botanische Garten Augsburg",
    "s" : "Dr.-Ziegenspeck-Weg 10",
    "o" : "Augsburg",
    "t" : "Besonders sehenswert ist der Japanische Garten. Einer der schönsten Gärten dieser Art in Deutschland.",
    "url" : "https://www.augsburg.de/freizeit/ausflugsziele/botanischer-garten/"
  },
  {
    "id": "Botanische_Garten_Ulm",
    "gps" : {"lt":48.41833, "long":9.96989},
    "k" : "UL",
    "n" : "Botanischer Garten der Universität Ulm",
    "s" : "Hans-Krebs-Weg",
    "o" : "Ulm",
    "t" : "Nach botanische Kriterien gegliedete Pflanzensammung. Umfangreiche Taglilien Sammlung.",
    "url" : "https://www.uni-ulm.de/einrichtungen/garten/"
  },
  {
    "id": "Bluehendes_Barock",
    "gps" : {"lt":48.8994,  "long":9.1961},
    "k" : "S",
    "n" : "Blühendes Barock Ludwigsburg",
    "s" : "Friedrich-Ebert-Straße",
    "o" : "Ludwigsburg",
    "t" : "Das Blühende Barock Ludwigsburg ist die älteste und schönste Dauergartenschau. Mit seinen weitläufigen Parkanlagen und der farbenfrohen Blütenpracht zieht das Blühende Barock Jahr für Jahr über 500.000 große und kleine Besucher aus aller Welt an.",
    "url" : "https://www.blueba.de/de/"
  },
  {
    "id": "Hohenheim",
    "gps" : {"lt":48.71082, "long":9.20615},
    "k" : "S",
    "n" : "Gärten Universität Hohenheim",
    "s" : "August-von-Hartmann-Straße",
    "o" : "Stuttgart-Hohenheim",
    "t" : "Zu den Hohenheimer Gärten zählen das Landesarboretum Baden-Württembergs, der Schlosspark und der Botanische Garten.",
    "url" : "https://gaerten.uni-hohenheim.de/"
  },
  {
    "id": "franziskaner_wangen",
    "gps" : {"lt":47.68349, "long":9.836532},
    "k" : "OA",
    "n" : "Klostergarten Wangen",
    "s" : "Am Klösterle 1",
    "o" : "88239 Wangen im Allgäu",
    "t" : "Schöner und ruhiger Klostergarten.",
    "url" : "http://franziskaner-wangen.de/Klostergarten.868.0.html"
  },
  {
    "id": "kloster_roggenburg",
    "gps" : {"lt":48.27422,  "long": 10.22882},
    "k" : "UL",
    "n" : "Klostergarten Roggenburg",
    "s" : "Prälatenhof",
    "o" : "89297 Roggenburg",
    "t" : "Terrassengräten, Meditationsgarten mit Efeu-Labyrint und Kloster-Kräutergarten ",
    "url" : "https://www.kloster-roggenburg.de/web/de/kloster/04_klosteranlage/klostergarten-efeu-labyrinth.php"
  },
  {
    "id": "Braike",
    "gps" : {"lt":48.60988, "long": 9.35445},
    "k" : "S",
    "n" : "Lehr- und Versuchs\u00ADgarten Braike",
    "s" : "Schelmenwasen 6",
    "o" : "72622 Nürtingen",
    "t" : "Leergarten zur standortgerechten Verwendung von Stauden",
    "url" : "https://www.hfwu.de/hfwu-scout/anlaufstellen/lehr-und-versuchsgaerten-lvg/"
  },
  {
    "id": "Tachenhausen",
    "gps" : {"lt":48.6491, "long": 9.3847},
    "k" : "S",
    "n" : "Lehr- und Versuchs\u00ADgarten Tachenhausen",
    "s" : "Hofgut Tachenhausen 14",
    "o" : "72644 Oberboihingen",
    "t" : "Marktgängige Sortimente von Gehölzen, Stauden und Sommerblumen, werden im Lehr- und Versuchsgarten Tachenhausen vorgestellt",
    "url" : "https://www.hfwu.de/hfwu-scout/anlaufstellen/lehr-und-versuchsgaerten-lvg/"
  },
  {
    "id": "dennenlohe",
    "gps" : {"lt":49.09673, "long": 10.60923},
    "k" : "BY",
    "n" : "Schlosspark Dennenlohe",
    "s" : "Dennenlohe 1",
    "o" : "91743 Unterschwaningen",
    "t" : "Sehr große und abwechslungsreiche Parkanlage",
    "url" : "https://www.dennenlohe.de/de/park/schlosspark.html"
  },
  {
    "id": "mainau",
    "gps" : {"lt":47.7009, "long": 9.1842},
    "k" : "OA",
    "n" : "Insel Mainau",
    "s" : "Insel Mainau 1",
    "o" : "78465 Insel Mainau",
    "t" : "Insel Mainau",
    "url" : "https://www.mainau.de/"
  },
  {
    "id": "albgold",
    "gps" : {"lt":48.32751, "long": 9.23802},
    "k" : "S",
    "n" : "Alb Gold Kräuterwelt",
    "s" : "Am Grindel 1",
    "o" : "72818 Trochtelfingen",
    "t" : "2 Hektar großer Kräuter- und Erlegnisgarten mit über 1.000 verschiedene Küchen- und Gewürzkräuter, Arznei- und Heilpflanzen, Tee- und Duftkräuter",
    "url" : "https://www.alb-gold.de/kundenzentrum/kraeuter-welt.html"
  },
  {
    "id": "weleda",
    "gps" : {"lt":48.81315, "long": 9.7705},
    "k" : "S",
    "n" : "Weleda Heilpflanzengarten",
    "s" : "Am Pflanzengarten 1",
    "o" : "73527 Schwäbisch Gmünd",
    "t" : "Europas größter biologisch-dynamischer Heilpflanzengarten erstreckt sich am Rande der Schwäbischen Alb. Auf 20 Hektar Fläche werden 160 verschiedene Heilpflanzenarten angebaut.",
    "url" : "https://www.weleda.de/weleda/erlebniszentrum/garten_tinktur"
  },
  {
    "id": "dahlienschau-lindau",
    "gps" : {"lt":47.56232, "long": 9.71247},
    "k" : "OA",
    "n" : "Dahlienschau Lindau",
    "s" : "Büchelewiesweg",
    "o" : "88131 Lindau Bodensee",
    "t" : "2 Hektar großer Kräuter- und Erlegnisgarten mit über 1.000 verschiedene Küchen- und Gewürzkräuter, Arznei- und Heilpflanzen, Tee- und Duftkräuter",
    "url" : "http://dahlienschau-lindau.de/"
  },
  {
    "id": "kurpark-bad-woerishofen",
    "gps" : {"lt":48.00524, "long": 10.58589},
    "k" : "OA",
    "n" : "Kurpark Bad Wörishofen",
    "s" : "Mindelheimer Straße",
    "o" : "86825 Bad Wörishofen",
    "t" : "163.000 m² großer Park mit Kräutergarten, Rosengarten und vielem mehr",
    "url" : "https://www.bad-woerishofen.de/die-gesundheitsstadt/parks-einrichtungen/kurpark.html"
  },
  {
    "id": "hoellberg",
    "gps" : {"lt":48.03067,  "long": 10.39747},
    "n" : "Privatgarten Höllberg",
    "s" : "Höllberg 14",
    "o" : "87754 Kammlach",
    "t" : "Privatgarten mit großer Pfingstrosensammlung",
    "url" : "http://www.gaerten-hoellberg.de/"
  },
  {
    "id": "kreislerhgarten_unterallgaeu",
    "gps" : {"lt":47.87547,   "long": 10.21747},
    "k" : "OA",
    "n" : "Unterallgäuer Kreislehrgarten",
    "s" : "Pappenheimer Straße 2",
    "o" : "87730 Bad Grönenbach",
    "t" : "Garten mit vielen verschiedene Stauden, Gräser, Sträucher und Bäumen",
    "url" : "https://www.landratsamt-unterallgaeu.de/index.php?id=195"
  },
  {
    "id": "Naturlehrgarten_Mindelheim",
    "gps" : {"lt":48.0313,  "long": 10.4874  },
    "k" : "OA",
    "n" : "Naturlehrgarten Mindelheim",
    "s" : "Tiergartenstraße",
    "o" : "87719 Mindelheim",
    "t" : "Umweltbildung und Naherholung am Rand der Kleinstadt",
    "url" : "https://www.lwg.bayern.de/gaerten/203129/index.php"
  },
  {
    "id": "Rosengarten_Ulm",
    "gps" : {"lt":48.39677,  "long": 9.99791  },
    "k" : "UL",
    "n" : "Rosengarten Ulm",
    "s" : "Adlerbastei",
    "o" : "89073 Ulm",
    "t" : "Kleiner Rosengarten am Ufer der Donau",
    "url" : "https://www.rosenfreunde-ulm.de/rosengarten-ulm/"
  },
  {
    "id": "weihenstephaner-gaerten.",
    "gps" : {"lt":48.40089, "long": 11.72877  },
    "k" : "BY",
    "n" : "Weihenstephaner Gärten",
    "s" : "Am Staudengarten 7",
    "o" : "85354 Freising ",
    "t" : "Ziergarten, Obstbau, Balkonpflanzen - Die Weihenstephaner bieten für jeden Gärtner etwas",
    "url" : "https://www.hswt.de/weihenstephaner-gaerten.html"
  }

]

