{
  "name": "Frühling in der Gemeinde Roggenburg",
  "markdownUrl": "info.md",
  "images": [
    {
      "title": "Kloster Roggenburg",
      "image": "0101KlosterVonEwenderhof2.jpg"
    },
    {
      "title": "Schleebuch",
      "image": "0103SchllebuchNebel.jpg"
    },
    {
      "title": "Kerbe Schießen",
      "image": "0104SchiessenKerbe.jpg"
    },
    {
      "title": "Wegkreuz bei Schleebuch",
      "image": "0104SchleebuchKreuzBaum2.jpg"
    },
    {
      "title": "Obstbäume nach Roggenburg",
      "image": "0106_BluehendeObstbaeumeStrasse.jpg"
    },
    {
      "title": "Streuobstwiese bei Ingstetten",
      "image": "0106KlosterStreuobst1.jpg"
    },
    {
      "title": "Schleebuch",
      "image": "0106Schleebuch.jpg"
    },
    {
      "title": "Ingstetten",
      "image": "0107_ingstetten.JPG"
    }
  ]

}