{
  "name": "Roggenburger Horizonte",
  "markdownUrl": "info.md",
  "images": [
    {
      "title": "Herbst Biberach",
      "image": "BiberachHerbst.JPG"
    },
    {
      "title": "Blick nach Rennertshofen",
      "image": "BlickNachRennertshofen.JPG"
    },
    {
      "title": "Gemeinde",
      "image": "Gemeinde.JPG"
    },
    {
      "title": "Hochsitz bei Unteregg",
      "image": "Hochsitz.JPG"
    },
     {
      "title": "Ingestetten im Frost",
      "image": "IngestettenFrost.JPG"
    },
    {
      "title": "Ingstetten Sonnenaufgang",
      "image": "IngstettenSonnenaufgang.JPG"
    },
    {
      "title": "Instetten Bäume Sonnenuntergang",
      "image": "InstettenBaeumeSonnenuntergang.JPG"
    },
    {
      "title": "Kerbe Winter",
      "image": "KerbeWinter.JPG"
    },
    {
      "title": "Kloster Sonnenaufgang",
      "image": "KlosterSonnenaufgang.JPG"
    },
    {
      "title": "Kloster Sonnenaufgang",
      "image": "KlosterTuermeSonnenaufgang.JPG"
    },
     {
      "title": "Messhofen Kirchtumspitze",
      "image": "MesshofenKirchtumspitze.JPG"
    },
    {
      "title": "Rondell Herbst",
      "image": "RondellHerbst.JPG"
    },
    {
      "title": "Biberach Scheibenfeuer",
      "image": "Scheibenfeuer.JPG"
    },
    {
      "title": "Schleebuch Bäume Kreuz",
      "image": "SchleebuchBaeumeKreuz.JPG"
    },
    {
      "title": "Schleebuch Baum Nebel",
      "image": "SchleebuchBaumNebel.JPG"
    }
  ]

}