[{ "id": "2024-11-13_BienenHotspotBerlin",
  "subject": "Garten",
  "title": "Bienen-Hotspot Berlin",
  "abstract": "Pflanzen zur Förderung von Wildbienen in der Stadt",
  "newsDate": "2024-11-13",
  "newsTime": "10:00",
  "imageSrc" : "news/2021-01-25_100Gaerten1000Arten.JPG",
  "markdownUrl": "news/2024-11-13_BienenHotspotBerlin.md"  }
,{ "id": "2024-11-13_TorfreiesKempten",
  "subject": "Garten",
  "title": "Torffreies Gärtnern in Kempten",
  "abstract": "Die Stadtgärtnerei Kempten im Allgäu geht bereits seit über 10 Jahren mit gutem Beispiel voran.",
  "newsDate": "2024-11-13",
  "newsTime": "10:00",
  "imageSrc" : "news/2019-01-26_Staudensterne.jpg",
  "markdownUrl": "news/2024-11-13_TorfreiesKempten.md"  }
,{ "id": "2024-03-21_Migliederversammlung",
  "subject": "Garten",
  "title": "Rückblick Mitgliederversammlung",
  "abstract": "Eine neue Vorstandschaft wurde gewählt.",
  "newsDate": "2024-03-21",
  "newsTime": "10:00",
  "imageSrc" : "news/2024-03-21_Migliederversammlung.JPG",
  "markdownUrl": "news/2024-03-21_Migliederversammlung.md"  }
,{ "id": "2024_01_28_FlyerKartenkurse",
  "subject": "Garten",
  "title": "Gartenkurse aus erster Hand",
  "abstract": "Der Flyer mit den Gartenkursen des Kreisverband Neu-Ulm kann herunter geladen werden",
  "newsDate": "2024-01-28",
  "newsTime": "10:00",
  "imageSrc" : "news/2024_01_28_FlyerKartenkurse.JPG",
  "markdownUrl": "news/2024_01_28_FlyerKartenkurse.md"  }
,{ "id": "2024_01_28_ProgrammKreisverband",
  "subject": "Garten",
  "title": "Neues Jahresprogramm des Kreisverband",
  "abstract": "Das neue Jahresprogramm des Kreisverband für Gartenbau und Landespflege Neu-Ulm ist erhältlich",
  "newsDate": "2024-01-28",
  "newsTime": "10:00",
  "imageSrc" : "news/2024_01_28_ProgrammKreisverband.JPG",
  "markdownUrl": "news/2024_01_28_ProgrammKreisverband.md"  }
,{ "id": "2024_01_11_HaesslichsterRasen",
  "subject": "Garten",
  "title": "Der hässlichste Rasen der Welt",
  "abstract": "wurde gewählt",
  "newsDate": "2024-01-11",
  "newsTime": "10:00",
  "imageSrc" : "news/2024_01_11_HaesslichsterRasen.JPG",
  "markdownUrl": "news/2024_01_11_HaesslichsterRasen.md"  }
,{ "id": "2023_03_23_Migliederversammlung",
  "subject": "Garten",
  "title": "Rückblick Mitgliederversammlung",
  "abstract": "Rückblick Mitgliederversammlung 2023.",
  "newsDate": "2023-03-23",
  "newsTime": "10:00",
  "imageSrc" : "news/2023_03_23_Migliederversammlung.JPG",
  "markdownUrl": "news/2023_03_23_Migliederversammlung.md"  }
,{ "id": "2023_03_10_Wildblumensamen",
  "subject": "Garten",
  "title": "Kostenloses Saatgut für Blumenwiesen",
  "abstract": "Der Kreisverband Neu-Ulm gibt auch dieses Jahr wieder kostenloses Wildblumensaatgut an Gartenbesitzer ab.",
  "newsDate": "2023-03-10",
  "newsTime": "10:00",
  "imageSrc" : "news/2021_03_10_Wildblumenwiese.JPG",
  "markdownUrl": "news/2023_03_10_Wildblumenwiesen.md"  }
,
  { "id": "2022-10-14_StreuobstFuerAlle",
    "subject": "Dorf",
    "title": "Streuobst für alle ",
    "abstract": "Der Kauf von Obstgehölzen wird mit bis zu 45 € pro Baum gefördert",
    "newsDate": "2022-10-14",
    "newsTime": "10:00",
    "imageSrc" : "news/2022-10-14_StreuobstFuerAlle.jpg",
    "markdownUrl": "news/2022-10-14_StreuobstFuerAlle.md"  }
,{ "id": "2022-08-07_IleFreizeittag",
    "subject": "Dorf",
    "title": "ILE – Familien- und Freizeittag 2022",
    "abstract": "Kräuterbuschen und  Flieger",
    "newsDate": "2022-08-07",
    "newsTime": "10:00",
    "imageSrc" : "news/2022-08-07_leFreizeittag.jpg",
    "markdownUrl": "news/2022-08-08_leFreizeittag.md"  }
,{ "id": "2022-06-16_Fronleichnamsaltar",
    "subject": "Dorf",
    "title": "Fronleichnamsaltar",
    "abstract": "Auch in diesem Jahr wurde ein Fronleichnamsalter wieder von Irmgard Faul geschmückt",
    "newsDate": "2022-06-16",
    "newsTime": "10:00",
    "imageSrc" : "news/2022-06-16_Fronleichnamsaltar.JPG",
    "markdownUrl": "news/2022-06-16_Fronleichnamsalter.md"  }
,{ "id": "2022-05-30_HochbeetKindergarten",
    "subject": "Dorf",
    "title": "Hochbeete im Kindergarten bepflanzt",
    "abstract": "Im Kindergarten in Schießen wurden 3 neue Hochbeete bepflanzt.",
    "newsDate": "2022-05-30",
    "newsTime": "10:00",
    "imageSrc" : "news/2022-05-30_HochbeetKindergarten.jpg",
    "markdownUrl": "news/2022-05-30_HochbeetKindergarten.md"  }
,{ "id": "2022-05-10_Rabatte_Kirche",
    "subject": "Dorf",
    "title": "Rabatte neu gestaltet",
    "abstract": "Die Rabatten am West-Ausgang der Kirche wurden neu gestaltet.",
    "newsDate": "2022-05-10",
    "newsTime": "19:00",
    "imageSrc" : "news/2022-05-10_Rabatte_Kirche.jpg",
    "markdownUrl": "news/2022-05_10_Rabatte_Kirche.md"  }
,{ "id": "2022-05-09_Letzter_Baum",
      "subject": "Dorf",
      "title": "Kommunionkinder pflanzen 90. Baum",
      "abstract": "Die Kommunionkinder haben den letzten Baum der Aktion '90 Jahre - 90 Bäume' gepflanzt",
      "newsDate": "2022-05-09",
      "newsTime": "19:00",
      "imageSrc" : "news/2022-05-09_Letzter_Baum.jpg",
      "markdownUrl": "news/2022-05-09_Letzter_Baum.md"  }
  ,{ "id": "2021-12-13-Mediathek",
    "subject": "Dorf",
    "title": "OGV Schießen in der BR Mediathek",
    "abstract": "Der OGV Schießen ist in der Querbeet Mediathek zu sehen",
    "newsDate": "2021-12-13",
    "newsTime": "19:00",
    "imageSrc" : "news/2021-12-13-Mediathek.jpg",
    "markdownUrl": "news/2021-12-13-Mediathek.md"  }
,
  { "id": "2021_11_24_OberelchingenQuerbeet",
    "subject": "Dorf",
    "title": "Querbeet in Oberelchingen",
    "abstract": "Der BR berichtete über eine Pflanzaktion des Gartenbauvereins",
    "newsDate": "2021-11-24",
    "newsTime": "15:00",
    "imageSrc" : "news/2021_11_24_OberelchingenQuerbeet.jpg",
    "markdownUrl": "news/2021_11_24_OberelchingenQuerbeet.md"  }
,{ "id": "2021_11_12_WegkreuzSchleebuch",
    "subject": "Dorf",
    "title": "Linden beim Weg\u00ADkreuz gepflanzt",
    "abstract": "Beim Wegkreuz am neuen Hochbehälter wurden 2 Winterlinden gepflanzt",
    "newsDate": "2021-11-12",
    "newsTime": "15:00",
    "imageSrc" : "news/2021_11_12_WegkreuzSchleebuch.jpg",
    "markdownUrl": "news/2021_11_12_WegkreuzSchleebuch.md"  }
,{ "id": "2021_08_01_KarteStreuobst",
    "subject": "Streuobst",
    "title": "Streuobst Karte Neu-Ulm",
    "abstract": "Karte der Apfel- und Birnensorten im Landkreis Neu-Ulm",
    "newsDate": "2021-08-01",
    "newsTime": "10:00",
    "imageSrc" : "news/ApfelLaub1000x667.JPG",
    "markdownUrl": "news/2021_08_01_KarteStreuobst.md"  }
,
  { "id": "2021_05_17_BlumenwieseSchleebuch",
    "subject": "Dorf",
    "title": "Blumenwiese in Schleebuch",
    "abstract": "In Zusammenarbeit mit der Gemeinde Roggenburg hat der OGV Schießen eine Blumenwiese in Schleebuch angesät.",
    "newsDate": "2021-05-17",
    "newsTime": "10:00",
    "imageSrc" : "news/2021_05_17_BlumenwieseSchleebuchFrisch.JPG",
    "markdownUrl": "news/2021_05_17_BlumenwieseSchleebuchFrisch.md"  }
,{ "id": "2021_04_07_Mundraub",
    "subject": "Streuobst",
    "title": "Streuobstbörse Neu-Ulm",
    "abstract": "Der Kreisverband Neu-Ulm hat den Aufbau einer „Streuobstbörse im Landkreis Neu-Ulm“ beschlossen.",
    "newsDate": "2021-04-07",
    "newsTime": "10:00",
    "imageSrc" : "news/ApfelLaub1000x667.JPG",
    "markdownUrl": "news/2021_04_07_Mundraub.md"  }
, { "id": "2021_03_10_Wildblumensamen",
    "subject": "Garten",
    "title": "Kostenloses Saatgut für Blumenwiesen",
    "abstract": "Der Kreisverband Neu-Ulm gibt auch dieses Jahr wieder kostenloses Wildblumensaatgut an Gartenbesitzer ab.",
    "newsDate": "2021-03-10",
    "newsTime": "10:00",
    "imageSrc" : "news/2021_03_10_Wildblumenwiese.JPG",
    "markdownUrl": "news/2021_03_10_Wildblumenwiesen.md"  }
,{ "id": "2021-03-06_Obstbaumschnitt",
    "subject": "Garten",
    "title": "Präsentation Obstbaumschnitt",
    "abstract": "Die Präsentation zum Schnittkurs ist online verfügbar",
    "newsDate": "2021-03-06",
    "newsTime": "10:00",
    "imageSrc" : "events/OeschbergPalmerMusterbaum.jpg",
    "markdownUrl": "news/2021-03-06_Obstbaumschnitt.md"
  }, { "id": "2021-01-25_100Gaerten1000Arten",
    "subject": "Garten",
    "title": "Tausende Gärten – Tausende Arten",
    "abstract": "Die Kampagne Tausende Gärten – Tausende Arten will, dass die naturnahe Gartenbewegung zum Trend wird.",
    "newsDate": "2021-01-25",
    "newsTime": "10:00",
    "imageSrc" : "news/2021-01-25_100Gaerten1000Arten.JPG",
    "markdownUrl": "news/2021-01-25_100Gaerten1000Arten.md"
  },{ "id": "2021-01-04_Gartenschauen2021",
    "subject": "Garten",
    "title": "4 Gartenschauen in Bayern und B.-Württemberg",
    "abstract": "Dieses Jahr finden 4 Gartenschauen in Bayern und Baden-Württemberg statt",
    "newsDate": "2021-01-04",
    "newsTime": "10:00",
    "imageSrc" : "news/2021-01-04_Gartenschauen2021.JPG",
    "markdownUrl": "news/2021-01-04_Gartenschauen2021.md"
  },{ "id": "2020_12_29_NeueBuchsSorten",
    "subject": "Garten",
    "title": "Neue Buchssorten - resistent gegen das Triebsterben",
    "abstract": "In Belgien wurden neue Buchssorten gezüchten, die resistent gegen den Buchsbaumpilz sind.",
    "newsDate": "2020-12-29",
    "newsTime": "10:00",
    "imageSrc" : "news/BuchsVillandry.JPG",
    "markdownUrl": "news/2020_12_29_NeueBuchsSorten.md"
  },{ "id": "2020_10_14_Wildblumensamen",
    "subject": "Streuobst",
    "title": "Zu gut für die Tonne: Gelbes Band – das Ernteprojekt",
    "abstract": "Heimisches Obst und Gemüse ist viel zu schade, um ungenutzt zu verrotten.  Der Obst- und Gartenbauverein Biberach-Asch hat das Projekt gelbes Band gestartet",
    "newsDate": "2020-10-14",
    "newsTime": "10:00",
    "imageSrc" : "news/2020_10_14_GelbesBand.JPG",
    "markdownUrl": "news/2020_10_14_GelbesBand.md"
  },{ "id": "2020_04_15_Wildblumensamen",
    "subject": "Garten",
    "title": "Kostenloses Saatgut für Blumenwiesen",
    "abstract": "Der Kreisverband Neu-Ulm gibt auch dieses Jahr wieder kostenloses Wildblumensaatgut an Gartenbesitzer ab.",
    "newsDate": "2020-04-15",
    "newsTime": "10:00",
    "imageSrc" : "news/2019_03_09_Wildblume.JPG",
    "markdownUrl": "news/2020_04_15_Wildblumenwiesen.md"
  },{ "id": "2020_02_04_Vielfaltsmacher",
      "subject": "Garten",
      "title": "(G)ARTEN.REICH.NATUR",
      "abstract": "Unser Landesverband hat ein neues Projekt gestartet",
      "newsDate": "2020-02-04",
      "newsTime": "10:00",
      "imageSrc" : "news/2020_02_04_Vielfaltsmacher.JPG",
      "markdownUrl": "news/2020_02_04_Vielfaltsmacher.md"
    },{ "id": "2020_01_08_DonAUwaldWanderweg",
    "subject": "Freizeit",
    "title": "Eröffnung des DonAUwald-Wanderweg",
    "abstract": "Seit kurzem gibts es den ersten Premiumwanderweg in Bayerisch-Schwaben",
    "newsDate": "2020-01-08",
    "newsTime": "10:00",
    "imageSrc" : "news/wandern.jpg",
    "markdownUrl": "news/2020_01_08_DonAUwaldWanderweg.md"
  },{ "id": "2019_12_15_KursPflanzenschutz",
  "subject": "Garten",
  "title": "Kurs 'Pflanzenschutz - gefährlich, sinnlos und überflüssig?'",
  "abstract": "Der erste OPEN vhb-Kurs der Hochschule Weihenstephan-Triesdorf startet mit dem Thema 'Pflanzenschutz'",
  "newsDate": "2019-12-15",
  "newsTime": "10:00",
  "imageSrc" : "news/2019_12_15_KursPflanzenschutz.JPG",
  "markdownUrl": "news/2019_12_15_KursPflanzenschutz.md"
},{ "id": "2019_05_03_SortenSchleebuch",
  "subject": "Streuobst",
  "title": "Apfelsorten auf der Streuobstwiese in Schleebuch",
  "abstract": "Auf der Streuobstwiese zwischen Schießen und Schleebuch stehen viele alte Apfelsorten",
  "newsDate": "2019-05-03",
  "newsTime": "10:00",
  "imageSrc" : "news/2019_05_03_SortenSchleebuch.jpg",
  "markdownUrl": "news/2019_05_03_SortenSchleebuch.md"
},{ "id": "2019_04_08_Pfannkuchenrezept",
  "subject": "Streuobst",
  "title": "Rezept: Pfannkuchen mit Wildkräutern",
  "abstract": "Die Pfannkuchen bei unserem Wildkräuterspaziergang waren sehr beliebt. Hier nun das Rezept:",
  "newsDate": "2019-04-08",
  "newsTime": "10:00",
  "imageSrc" : "news/2019_04_08_Pfannkuchenrezept.jpg",
  "markdownUrl": "news/2019_04_08_Pfannkuchenrezept.md"
},{ "id": "2019_03_21_Sortenkartierung",
  "subject": "Streuobst",
  "title": "Karte mit alten Apfelsorten in unserer Gemeinde",
  "abstract": "Die alten Apfelsorten die letztes Jahr erfasst wurden sind jetzt online",
  "newsDate": "2019-03-21",
  "newsTime": "10:00",
  "imageSrc" : "events/OeschbergPalmerMusterbaum.jpg",
  "markdownUrl": "news/2019_03_21_Sortenkartierung.md"
},{ "id": "2019_03_09_Wildblumensamen",
  "subject": "Garten",
  "title": "Kostenloses Saatgut für Blumenwiesen",
  "abstract": "Der Kreisverband Neu-Ulm gibt auch dieses Jahr wieder kostenloses Wildblumensaatgut an Gartenbesitzer ab.",
  "newsDate": "2019-03-09",
  "newsTime": "10:00",
  "imageSrc" : "news/2019_03_09_Wildblume.JPG",
  "markdownUrl": "news/2019_03_09_Wildblumensamen.md"
  },
  { "id": "2019_03_02_TagDerOffenenGartentuer",
  "subject": "Garten",
  "title": "Tag der offenen Gartentür",
  "abstract": "Auch in diesem Jahr öffnen wieder viele Hobbygärtner ihre Reiche. Der Flyer dazu steht schon zum Download bereit.",
  "newsDate": "2019-03-02",
  "newsTime": "10:00",
  "imageSrc" : "events/tagderoffenenGartentuer.JPG",
  "markdownUrl": "events/2019_06_30-TagDerOffenenGartentuer.md",
  "link": "https://www.gartenbauvereine-schwaben.de/aktuelles/"
  },
  { "id": "2019_02_08_Jahresprogramm2019",
    "subject": "Garten",
    "title": "Jahresprogramm Kreisverband 2019",
    "abstract": "Das Jahresprogamm des Kreisverbandes Neu-Ulm ist fertig gestellt und steht zum Download bereit",
    "newsDate": "2019-02-08",
    "newsTime": "9:00",
    "imageSrc" : "events/Kreismustergarten2.JPG",
    "markdownUrl": "news/2019_02_08_Jahresprogramm2019.md",
    "link": "http://www.landkreis.neu-ulm.de/de/kreisverband-fuer-gartenbau-und-landespflege/kreisverband-fuer-gartenbau-und-landespflege-20002405.html"
  },  { "id": "2019_02_05_Gartenschauen2019",
    "subject": "Garten",
    "title": "Gartenschauen 2019",
    "abstract": "Auch 2019 gibt es wieder 3 interessante Gartenschauen in Bayern und Baden-Württemberg",
    "newsDate": "2019-02-05",
    "newsTime": "9:00",
    "imageSrc" : "news/2019_02_05_Gartenschauen2019.JPG",
    "markdownUrl": "news/2019_02_05_Gartenschauen2019.md"
  }, { "id": "2019_01_27_KurseBeiGartenbauvereinen",
    "subject": "Garten",
    "title": "Kurse bei Gartenbauvereinen",
    "abstract": "Die Kreisfachberater für Gartenkultur und Landespflege bieten gemeinsam mit den Gartenbauvereinen der Gemeinden verschiedene Gartenkurse an.",
    "newsDate": "2019-01-27",
    "newsTime": "9:00",
    "imageSrc" : "events/OeschbergPalmerMusterbaum.jpg",
    "markdownUrl": "news/2019-01-27_KurseBeiGartenbauvereinen.md"
  },{ "id": "2019_01_26_Staudensterne",
    "subject": "Garten",
    "title": "Staudensterne",
    "abstract": "Von vielen Gartenpflanzen gibt es eine riesige Anzahl an verschiedenen Sorten. Woher weiß ein Gärtner, welche davon die Besten sind?",
    "newsDate": "2019-01-26",
    "newsTime": "9:00",
    "imageSrc" : "news/2019-01-26_Staudensterne.jpg",
    "markdownUrl": "news/2019-01-26_Staudensterne.md"
  },
  { "id": "2019_01_19_BiologischesSaatgut",
    "subject": "Garten",
    "title": "Ökologisches Saatgut",
    "abstract": "Bald beginnt wieder die Zeit, um selber Pflanzen im Haus vorzuziehen, deswegen sollte man sich schon bald Gedanken über das Saatgut machen",
    "newsDate": "2019-01-19",
    "newsTime": "9:00",
    "imageSrc" : "news/chilli.JPG",
    "markdownUrl": "news/2019_01_19_BiologischesSaatgut.md"
  },
  { "id": "2019-01-10_SteuobstDesJahres",
    "subject": "Hompage",
    "title": "Streuobstsorte des Jahres 2019: Öhringer Blutstreifling",
    "abstract": "Die Arbeitsgruppe Streuobst im LOGL hat für 2019 den Öhringer Blutstreifling als Streuobstsorte des Jahres ausgewählt",
    "newsDate": "2019-01-10",
    "newsTime": "9:00",
    "imageSrc" : "news/2019-01-10_SteuobstDesJahres.jpg",
    "markdownUrl": "news/2019-01-10_SteuobstDesJahres.md",
    "link": "https://www.logl-bw.de/index.php/logl-themen/streuobst/streuobstsorte-des-jahres"
  },
  { "id": "2019-01-06_KarteGaerten",
    "subject": "Hompage",
    "title": "Karten von Gärten in unserer Nähe",
    "abstract": "Es gibt auf unsere Homepage eine Karte mit sehenswerten Gärten in der Umgebung",
    "newsDate": "2019-01-06",
    "newsTime": "9:00",
    "imageSrc" : "themen/leaf-solid.png",
    "markdownUrl": "news/2019-01-06_KarteGaerten.md"
  },
  { "id": "2019-01-03_KurseFreizeitgaertner",
    "subject": "Veranstaltungen",
    "title": "Kurse für Freizeitgärtner",
    "abstract": "Auch 2019 gibt es wieder viele interessante Kurse für interessierte Freizeitgärtner",
    "newsDate": "2019-01-03",
    "newsTime": "9:00",
    "imageSrc" : "news/2019-01-03_KurseFreizeitgaertner.JPG",
    "markdownUrl": "news/2019-01-03_KurseFreizeitgaertner.md"
  },
  { "id": "2019-01-01_TafelStreuobst",
    "subject": "Streuobst",
    "title": "Informationstafel Streuobst",
    "abstract": "An der Streuobstwiese in Ingstetten wurde von der Gemeinde Roggenburg eine Informationstafel angebracht",
    "newsDate": "2019-01-01",
    "newsTime": "9:00",
    "imageSrc" : "news/2019-01-01_TafelStreuobst.JPG",
    "markdownUrl": "news/2019-01-01_TafelStreuobst.md"
  },
  { "id": "2018-31-12_Neuigkeitenfunktion",
    "subject": "Homepage",
    "title": "Neuigkeiten Funktion in der OGV Homepage",
    "abstract": "In unserer Homepage gibt es nun eine Neuigkeiten Funktion in der wir regelmäßig über aktuelle Themen berichten",
    "newsDate": "2018-12-31",
    "newsTime": "9:00",
    "imageSrc" : "news/newspaper-regular.svg",
    "markdownUrl": "news/2018-31-12_Neuigkeitenfunktion.md",
    "link": "https://fontawesome.com/license"
  }
]
