{
  "name": "Roggenburger Sonnenaufgänge",
  "markdownUrl": "info.md",
  "images": [
    {
      "title": "Baum Schleebuch",
      "image": "BaumSchleebuch.JPG"
    },
    {
      "title": "Biberach Sonnenuntergang",
      "image": "BiberachSonnenuntergang.JPG"
    },
    {
      "title": "Hochbehälter",
      "image": "Hochbehaelter.JPG"
    },
    {
      "title": "Ingstetten",
      "image": "Ingstetten.JPG"
    },
    {
      "title": "Ingstetten Sonnenaufgang",
      "image": "IngstettenSonnenaufgang2.JPG"
    },
    {
      "title": "Kerbe Sonnenuntergang",
      "image": "KerbeSonnenuntergang.JPG"
    },
    {
      "title": "Kloster Sonnenaufgang",
      "image": "KlosterSonnenaufgang2.JPG"
    },
    {
      "title": "Kloster Sonnenuntergang",
      "image": "KlosterSonnenuntergang.JPG"
    },
    {
      "title": "Messhofen",
      "image": "Messhofen.JPG"
    },
    {
      "title": "Roggenburg Sonneaufgang Nebel",
      "image": "RoggenburgSonneaufgangNebel.JPG"
    },
    {
      "title": "SchleebuchSonnenaufgang.JPG",
      "image": "SchleebuchSonnenaufgang.JPG"
    },
    {
      "title": "Schiessen Sonnenaufgang",
      "image": "SchiessenSonnenaufgang.JPG"
    }
  ]

}